{
  "data": {
    "content": [
      {
        "id": 3358,
        "applicationNum": 100003341,
        "applicationTypeId": 4,
        "reasonId": null,
        "statusId": 21002,
        "purposeId": 24004,
        "vehicleId": null,
        "registrationNumber": null,
        "lastRegistrationNumber": null,
        "registrationLiability": "2024-10-28T00:00:00.000+00:00",
        "chassisNumber": "XAMTIS4EY2",
        "yearOfMake": 2015,
        "vehicleMakeId": 122,
        "vehicleModelId": 451,
        "vehicleCategoryId": 28001,
        "manufacturerCertNumber": null,
        "manufacturerCertDate": null,
        "bodyTypeId": 15,
        "mainColorId": 45,
        "color2Id": null,
        "color3Id": null,
        "color4Id": null,
        "color5Id": null,
        "color6Id": null,
        "engineCapacity": 2000,
        "engineNumber": "XA345AAAAA",
        "nettPower": 432,
        "drivenById": 1,
        "fuelTypeId": 2,
        "gvm": 2500,
        "nettWeight": 2000,
        "numberOfAxlesId": 3,
        "axlesDistance": 1,
        "numberOfSeats": 5,
        "propelledById": 1,
        "steeringId": 2,
        "transmissionId": 1,
        "currentKilometrage": 100,
        "usageId": 1,
        "registrationRegion": "TEST SITE",
        "redbookSerialNumber": null,
        "originCountryId": 13,
        "entryPoint": "LUSAKA",
        "destination": "LUSAKA",
        "interpolClearanceCertDate": "2024-10-19T00:00:00.000+00:00",
        "interpolClearanceCertNum": "233434",
        "customsClearanceDate": "2024-07-17T00:00:00.000+00:00",
        "customsClearanceNumber": "LKA8E8334T",
        "exportedToId": null,
        "policeReportDate": null,
        "policeReportNumber": null,
        "reRegistrationNewFlag": null,
        "licenseRequiredPeriodId": null,
        "insuranceCompanyId": 11,
        "insuranceExpDate": "2024-12-31T00:00:00.000+00:00",
        "insuranceIssueDate": "2024-09-27T00:00:00.000+00:00",
        "insurancePolicyNumber": "2344335",
        "insuranceTypeId": 1,
        "newRegistrationNumber": null,
        "releaseInfoApplicantDetails": null,
        "releaseInfoTypeId": null,
        "releaseInfoDescription": null,
        "paymentTrackNumber": null,
        "skipPaymentFlag": 0,
        "comments": "XAMTIS FIRST TRN 1",
        "siteId": 999,
        "createdByComputerId": 0,
        "createdByUserId": 0,
        "creationDate": "2024-11-01T19:19:58.000+00:00",
        "updateDate": "2024-11-01T19:19:58.000+00:00",
        "updatedByComputerId": 556,
        "updatedByUserId": 33,
        "statusUpdatedDate": "2024-11-01T19:19:58.000+00:00",
        "vlCertTypeId": null,
        "duplicatedCertifTypeId": null,
        "vlCertificateTypeId": null,
        "reasonOfDuplicating": null,
        "priorityId": null,
        "registrationStatusId": 24004,
        "temporaryRegExpiryDt1": null,
        "temporaryRegExpiryDt2": null,
        "cesExemptionFlag": 0,
        "rtxExemptionFlag": 0,
        "plateNumberTypeId": 1,
        "reasonOfDuplicatingId": null,
        "importerTypeId": 2,
        "ownershipCategoryId": 28001,
        "vlLicensingCalcQtId": null,
        "vlLicensingCalcQtExpDate": null,
        "vehicleOriginId": 2,
        "vlNewUsedFlag": 1,
        "vlCustomPayingStatusFlag": 1,
        "vlBuyPersonalPlateFlag": 0,
        "zpClearanceCertificateDate": null,
        "zpClearanceCertificateNum": null,
        "vlLicensingCalcQtYear": null,
        "migratedFlag": null,
        "vlCustomPayingStatusId": 24032,
        "temporaryImportNumber": null,
        "modelNumberId": null,
        "newStatusId": null,
        "entryPointId": null,
        "exitPointId": null,
        "vlInlandDestinationId": null,
        "vlTransitDestinationId": null
      },
      {
        "id": 3357,
        "applicationNum": 100003340,
        "applicationTypeId": 4,
        "reasonId": null,
        "statusId": 21002,
        "purposeId": 24004,
        "vehicleId": null,
        "registrationNumber": null,
        "lastRegistrationNumber": null,
        "registrationLiability": "2024-10-28T00:00:00.000+00:00",
        "chassisNumber": "XAMTIS4E1QTQ22",
        "yearOfMake": 2015,
        "vehicleMakeId": 122,
        "vehicleModelId": 451,
        "vehicleCategoryId": 28001,
        "manufacturerCertNumber": null,
        "manufacturerCertDate": null,
        "bodyTypeId": 15,
        "mainColorId": 45,
        "color2Id": null,
        "color3Id": null,
        "color4Id": null,
        "color5Id": null,
        "color6Id": null,
        "engineCapacity": 2000,
        "engineNumber": "XA345AAAAA",
        "nettPower": 432,
        "drivenById": 1,
        "fuelTypeId": 2,
        "gvm": 2500,
        "nettWeight": 2000,
        "numberOfAxlesId": 3,
        "axlesDistance": 1,
        "numberOfSeats": 5,
        "propelledById": 1,
        "steeringId": 2,
        "transmissionId": 1,
        "currentKilometrage": 100,
        "usageId": 1,
        "registrationRegion": "TEST SITE",
        "redbookSerialNumber": null,
        "originCountryId": 13,
        "entryPoint": "LUSAKA",
        "destination": "LUSAKA",
        "interpolClearanceCertDate": "2024-10-19T00:00:00.000+00:00",
        "interpolClearanceCertNum": "233434",
        "customsClearanceDate": "2024-07-17T00:00:00.000+00:00",
        "customsClearanceNumber": "LKA8E8334T",
        "exportedToId": null,
        "policeReportDate": null,
        "policeReportNumber": null,
        "reRegistrationNewFlag": null,
        "licenseRequiredPeriodId": null,
        "insuranceCompanyId": 11,
        "insuranceExpDate": "2024-12-31T00:00:00.000+00:00",
        "insuranceIssueDate": "2024-09-27T00:00:00.000+00:00",
        "insurancePolicyNumber": "2344335",
        "insuranceTypeId": 1,
        "newRegistrationNumber": null,
        "releaseInfoApplicantDetails": null,
        "releaseInfoTypeId": null,
        "releaseInfoDescription": null,
        "paymentTrackNumber": null,
        "skipPaymentFlag": 0,
        "comments": "XAMTIS FIRST TRN 1",
        "siteId": 999,
        "createdByComputerId": 0,
        "createdByUserId": 0,
        "creationDate": "2024-11-01T19:19:02.000+00:00",
        "updateDate": "2024-11-01T19:19:02.000+00:00",
        "updatedByComputerId": 556,
        "updatedByUserId": 33,
        "statusUpdatedDate": "2024-11-01T19:19:02.000+00:00",
        "vlCertTypeId": null,
        "duplicatedCertifTypeId": null,
        "vlCertificateTypeId": null,
        "reasonOfDuplicating": null,
        "priorityId": null,
        "registrationStatusId": 24004,
        "temporaryRegExpiryDt1": null,
        "temporaryRegExpiryDt2": null,
        "cesExemptionFlag": 0,
        "rtxExemptionFlag": 0,
        "plateNumberTypeId": 1,
        "reasonOfDuplicatingId": null,
        "importerTypeId": 2,
        "ownershipCategoryId": 28001,
        "vlLicensingCalcQtId": null,
        "vlLicensingCalcQtExpDate": null,
        "vehicleOriginId": 2,
        "vlNewUsedFlag": 1,
        "vlCustomPayingStatusFlag": 1,
        "vlBuyPersonalPlateFlag": 0,
        "zpClearanceCertificateDate": null,
        "zpClearanceCertificateNum": null,
        "vlLicensingCalcQtYear": null,
        "migratedFlag": null,
        "vlCustomPayingStatusId": 24032,
        "temporaryImportNumber": null,
        "modelNumberId": null,
        "newStatusId": null,
        "entryPointId": null,
        "exitPointId": null,
        "vlInlandDestinationId": null,
        "vlTransitDestinationId": null
      },
      {
        "id": 3356,
        "applicationNum": 100003339,
        "applicationTypeId": 10,
        "reasonId": null,
        "statusId": 21002,
        "purposeId": 25002,
        "vehicleId": 407,
        "registrationNumber": "BLA4ZM",
        "lastRegistrationNumber": null,
        "registrationLiability": "2023-05-30T22:00:00.000+00:00",
        "chassisNumber": "JTFRS13P000046005Y",
        "yearOfMake": 2022,
        "vehicleMakeId": null,
        "vehicleModelId": null,
        "vehicleCategoryId": 24003,
        "manufacturerCertNumber": null,
        "manufacturerCertDate": null,
        "bodyTypeId": 150,
        "mainColorId": 55,
        "color2Id": null,
        "color3Id": null,
        "color4Id": null,
        "color5Id": null,
        "color6Id": null,
        "engineCapacity": 3200,
        "engineNumber": "33535",
        "nettPower": 460,
        "drivenById": 1,
        "fuelTypeId": 3,
        "gvm": 2800,
        "nettWeight": 2500,
        "numberOfAxlesId": 5,
        "axlesDistance": 1,
        "numberOfSeats": 5,
        "propelledById": 1,
        "steeringId": 2,
        "transmissionId": 1,
        "currentKilometrage": 0,
        "usageId": 1,
        "registrationRegion": null,
        "redbookSerialNumber": null,
        "originCountryId": null,
        "entryPoint": null,
        "destination": null,
        "interpolClearanceCertDate": "2023-05-23T22:00:00.000+00:00",
        "interpolClearanceCertNum": "2444",
        "customsClearanceDate": "2023-05-09T22:00:00.000+00:00",
        "customsClearanceNumber": "NKV720221",
        "exportedToId": null,
        "policeReportDate": null,
        "policeReportNumber": null,
        "reRegistrationNewFlag": null,
        "licenseRequiredPeriodId": null,
        "insuranceCompanyId": null,
        "insuranceExpDate": null,
        "insuranceIssueDate": null,
        "insurancePolicyNumber": null,
        "insuranceTypeId": null,
        "newRegistrationNumber": null,
        "releaseInfoApplicantDetails": null,
        "releaseInfoTypeId": null,
        "releaseInfoDescription": null,
        "paymentTrackNumber": null,
        "skipPaymentFlag": 0,
        "comments": "XAMTIS NEW REG",
        "siteId": 115,
        "createdByComputerId": 0,
        "createdByUserId": 188,
        "creationDate": "2024-11-01T18:34:50.000+00:00",
        "updateDate": "2024-11-01T18:34:50.000+00:00",
        "updatedByComputerId": 0,
        "updatedByUserId": 188,
        "statusUpdatedDate": "2024-11-01T18:34:50.000+00:00",
        "vlCertTypeId": null,
        "duplicatedCertifTypeId": null,
        "vlCertificateTypeId": null,
        "reasonOfDuplicating": null,
        "priorityId": 9,
        "registrationStatusId": 24004,
        "temporaryRegExpiryDt1": null,
        "temporaryRegExpiryDt2": null,
        "cesExemptionFlag": 0,
        "rtxExemptionFlag": 0,
        "plateNumberTypeId": 0,
        "reasonOfDuplicatingId": null,
        "importerTypeId": 2,
        "ownershipCategoryId": 28001,
        "vlLicensingCalcQtId": null,
        "vlLicensingCalcQtExpDate": null,
        "vehicleOriginId": 2,
        "vlNewUsedFlag": 1,
        "vlCustomPayingStatusFlag": 0,
        "vlBuyPersonalPlateFlag": 0,
        "zpClearanceCertificateDate": "2024-11-01T16:34:34.000+00:00",
        "zpClearanceCertificateNum": null,
        "vlLicensingCalcQtYear": null,
        "migratedFlag": null,
        "vlCustomPayingStatusId": 24032,
        "temporaryImportNumber": null,
        "modelNumberId": null,
        "newStatusId": null,
        "entryPointId": null,
        "exitPointId": null,
        "vlInlandDestinationId": null,
        "vlTransitDestinationId": null
      },
      {
        "id": 3355,
        "applicationNum": 100003338,
        "applicationTypeId": 10,
        "reasonId": null,
        "statusId": 21002,
        "purposeId": 25002,
        "vehicleId": 407,
        "registrationNumber": "BLA4ZM",
        "lastRegistrationNumber": null,
        "registrationLiability": "2023-05-30T22:00:00.000+00:00",
        "chassisNumber": "JTFRS13P000046005Y",
        "yearOfMake": 2022,
        "vehicleMakeId": null,
        "vehicleModelId": null,
        "vehicleCategoryId": 24003,
        "manufacturerCertNumber": null,
        "manufacturerCertDate": null,
        "bodyTypeId": 150,
        "mainColorId": 55,
        "color2Id": null,
        "color3Id": null,
        "color4Id": null,
        "color5Id": null,
        "color6Id": null,
        "engineCapacity": 3200,
        "engineNumber": "33535",
        "nettPower": 460,
        "drivenById": 1,
        "fuelTypeId": 3,
        "gvm": 2800,
        "nettWeight": 2500,
        "numberOfAxlesId": 5,
        "axlesDistance": 1,
        "numberOfSeats": 5,
        "propelledById": 1,
        "steeringId": 2,
        "transmissionId": 1,
        "currentKilometrage": 0,
        "usageId": 1,
        "registrationRegion": null,
        "redbookSerialNumber": null,
        "originCountryId": null,
        "entryPoint": null,
        "destination": null,
        "interpolClearanceCertDate": "2023-05-23T22:00:00.000+00:00",
        "interpolClearanceCertNum": "2444",
        "customsClearanceDate": "2023-05-09T22:00:00.000+00:00",
        "customsClearanceNumber": "NKV720221",
        "exportedToId": null,
        "policeReportDate": null,
        "policeReportNumber": null,
        "reRegistrationNewFlag": null,
        "licenseRequiredPeriodId": null,
        "insuranceCompanyId": null,
        "insuranceExpDate": null,
        "insuranceIssueDate": null,
        "insurancePolicyNumber": null,
        "insuranceTypeId": null,
        "newRegistrationNumber": null,
        "releaseInfoApplicantDetails": null,
        "releaseInfoTypeId": null,
        "releaseInfoDescription": null,
        "paymentTrackNumber": null,
        "skipPaymentFlag": 0,
        "comments": "XAMTIS NEW REG",
        "siteId": 115,
        "createdByComputerId": 0,
        "createdByUserId": 188,
        "creationDate": "2024-11-01T18:27:37.000+00:00",
        "updateDate": "2024-11-01T18:27:37.000+00:00",
        "updatedByComputerId": 0,
        "updatedByUserId": 188,
        "statusUpdatedDate": "2024-11-01T18:27:37.000+00:00",
        "vlCertTypeId": null,
        "duplicatedCertifTypeId": null,
        "vlCertificateTypeId": null,
        "reasonOfDuplicating": null,
        "priorityId": 9,
        "registrationStatusId": 24004,
        "temporaryRegExpiryDt1": null,
        "temporaryRegExpiryDt2": null,
        "cesExemptionFlag": 0,
        "rtxExemptionFlag": 0,
        "plateNumberTypeId": 0,
        "reasonOfDuplicatingId": null,
        "importerTypeId": 2,
        "ownershipCategoryId": 28001,
        "vlLicensingCalcQtId": null,
        "vlLicensingCalcQtExpDate": null,
        "vehicleOriginId": 2,
        "vlNewUsedFlag": 1,
        "vlCustomPayingStatusFlag": 0,
        "vlBuyPersonalPlateFlag": 0,
        "zpClearanceCertificateDate": "2024-11-01T16:27:28.000+00:00",
        "zpClearanceCertificateNum": null,
        "vlLicensingCalcQtYear": null,
        "migratedFlag": null,
        "vlCustomPayingStatusId": 24032,
        "temporaryImportNumber": null,
        "modelNumberId": null,
        "newStatusId": null,
        "entryPointId": null,
        "exitPointId": null,
        "vlInlandDestinationId": null,
        "vlTransitDestinationId": null
      },
      {
        "id": 3354,
        "applicationNum": 100003337,
        "applicationTypeId": 10,
        "reasonId": null,
        "statusId": 21002,
        "purposeId": 25002,
        "vehicleId": 229,
        "registrationNumber": "BLA1ZM",
        "lastRegistrationNumber": null,
        "registrationLiability": "2024-11-01T16:24:39.000+00:00",
        "chassisNumber": "LORBXA",
        "yearOfMake": 2017,
        "vehicleMakeId": null,
        "vehicleModelId": null,
        "vehicleCategoryId": 28001,
        "manufacturerCertNumber": null,
        "manufacturerCertDate": null,
        "bodyTypeId": 15,
        "mainColorId": 35,
        "color2Id": null,
        "color3Id": null,
        "color4Id": null,
        "color5Id": null,
        "color6Id": null,
        "engineCapacity": 1500,
        "engineNumber": "2424FFS",
        "nettPower": 450,
        "drivenById": 1,
        "fuelTypeId": 2,
        "gvm": 1600,
        "nettWeight": 100,
        "numberOfAxlesId": 2,
        "axlesDistance": 1,
        "numberOfSeats": 5,
        "propelledById": 1,
        "steeringId": 2,
        "transmissionId": 1,
        "currentKilometrage": 0,
        "usageId": 1,
        "registrationRegion": null,
        "redbookSerialNumber": null,
        "originCountryId": null,
        "entryPoint": null,
        "destination": "LUSAKA",
        "interpolClearanceCertDate": "2019-01-03T22:00:00.000+00:00",
        "interpolClearanceCertNum": "446YRY",
        "customsClearanceDate": "2019-01-01T22:00:00.000+00:00",
        "customsClearanceNumber": "454FG",
        "exportedToId": null,
        "policeReportDate": null,
        "policeReportNumber": null,
        "reRegistrationNewFlag": null,
        "licenseRequiredPeriodId": null,
        "insuranceCompanyId": null,
        "insuranceExpDate": null,
        "insuranceIssueDate": null,
        "insurancePolicyNumber": null,
        "insuranceTypeId": null,
        "newRegistrationNumber": null,
        "releaseInfoApplicantDetails": null,
        "releaseInfoTypeId": null,
        "releaseInfoDescription": null,
        "paymentTrackNumber": null,
        "skipPaymentFlag": 0,
        "comments": "XAMTIS NEW REG",
        "siteId": 115,
        "createdByComputerId": 0,
        "createdByUserId": 188,
        "creationDate": "2024-11-01T18:24:51.000+00:00",
        "updateDate": "2024-11-01T18:24:51.000+00:00",
        "updatedByComputerId": 0,
        "updatedByUserId": 188,
        "statusUpdatedDate": "2024-11-01T18:24:51.000+00:00",
        "vlCertTypeId": null,
        "duplicatedCertifTypeId": null,
        "vlCertificateTypeId": null,
        "reasonOfDuplicating": null,
        "priorityId": 9,
        "registrationStatusId": 24004,
        "temporaryRegExpiryDt1": null,
        "temporaryRegExpiryDt2": null,
        "cesExemptionFlag": 0,
        "rtxExemptionFlag": 0,
        "plateNumberTypeId": 0,
        "reasonOfDuplicatingId": null,
        "importerTypeId": 2,
        "ownershipCategoryId": 28001,
        "vlLicensingCalcQtId": null,
        "vlLicensingCalcQtExpDate": null,
        "vehicleOriginId": 2,
        "vlNewUsedFlag": 1,
        "vlCustomPayingStatusFlag": 0,
        "vlBuyPersonalPlateFlag": 0,
        "zpClearanceCertificateDate": "2024-11-01T16:24:39.000+00:00",
        "zpClearanceCertificateNum": null,
        "vlLicensingCalcQtYear": null,
        "migratedFlag": null,
        "vlCustomPayingStatusId": 24032,
        "temporaryImportNumber": null,
        "modelNumberId": null,
        "newStatusId": null,
        "entryPointId": null,
        "exitPointId": null,
        "vlInlandDestinationId": null,
        "vlTransitDestinationId": null
      }
    ],
    "pageable": {
      "pageNumber": 0,
      "pageSize": 5,
      "sort": {
        "empty": false,
        "sorted": true,
        "unsorted": false
      },
      "offset": 0,
      "paged": true,
      "unpaged": false
    },
    "totalElements": 2698,
    "totalPages": 540,
    "last": false,
    "size": 5,
    "number": 0,
    "sort": {
      "empty": false,
      "sorted": true,
      "unsorted": false
    },
    "numberOfElements": 5,
    "first": true,
    "empty": false
  },
  "errorMessage": null,
  "success": true
}
